decoder/3to8/decoder3to8_tb.vcd
$date
	Fri Mar  7 11:55:54 2025
$end
$version
	Icarus Verilog
$end
$timescale
	1ps
$end
$scope module decoder3to8_tb $end
$var wire 8 ! out [7:0] $end
$var reg 1 " a $end
$var reg 1 # b $end
$var reg 1 $ c $end
$scope module d38 $end
$var wire 1 " a $end
$var wire 1 # b $end
$var wire 1 $ c $end
$var wire 8 % out [7:0] $end
$upscope $end
$upscope $end
$enddefinitions $end
$comment Show the parameter values. $end
$dumpall
$end
#0
$dumpvars
b1 %
0$
0#
0"
b1 !
$end
#10
b10 !
b10 %
1$
#20
b100 !
b100 %
0$
1#
#30
b1000 !
b1000 %
1$
#40
b10000 !
b10000 %
0$
0#
1"
#50
b100000 !
b100000 %
1$
#60
b1000000 !
b1000000 %
0$
1#
#70
b10000000 !
b10000000 %
1$
